{
   "abstract" : "Mask multiple piddles with automatic two way feedback",
   "author" : [
      "Diab Jerius <djerius@cpan.org>"
   ],
   "dynamic_config" : 0,
   "generated_by" : "Dist::Zilla version 6.025, CPAN::Meta::Converter version 2.150010",
   "license" : [
      "gpl_3"
   ],
   "meta-spec" : {
      "url" : "http://search.cpan.org/perldoc?CPAN::Meta::Spec",
      "version" : 2
   },
   "name" : "PDLx-Mask",
   "no_index" : {
      "directory" : [
         "eg",
         "examples",
         "inc",
         "share",
         "t",
         "xt"
      ]
   },
   "prereqs" : {
      "configure" : {
         "requires" : {
            "Module::Build::Tiny" : "0.034"
         }
      },
      "develop" : {
         "requires" : {
            "Dist::Zilla" : "5",
            "Dist::Zilla::Plugin::AutoPrereqs" : "0",
            "Dist::Zilla::Plugin::BumpVersionAfterRelease" : "0",
            "Dist::Zilla::Plugin::CheckMetaResources" : "0",
            "Dist::Zilla::Plugin::CopyFilesFromRelease" : "0",
            "Dist::Zilla::Plugin::EnsureChangesHasContent" : "0",
            "Dist::Zilla::Plugin::EnsurePrereqsInstalled" : "0",
            "Dist::Zilla::Plugin::GatherDir" : "0",
            "Dist::Zilla::Plugin::GatherDir::Template" : "0",
            "Dist::Zilla::Plugin::InsertCommandOutput" : "0",
            "Dist::Zilla::Plugin::InsertCopyright" : "0",
            "Dist::Zilla::Plugin::InsertExample" : "0",
            "Dist::Zilla::Plugin::MetaJSON" : "0",
            "Dist::Zilla::Plugin::MetaNoIndex" : "0",
            "Dist::Zilla::Plugin::MetaProvides::Package" : "0",
            "Dist::Zilla::Plugin::MetaResources" : "0",
            "Dist::Zilla::Plugin::ModuleBuildTiny" : "0",
            "Dist::Zilla::Plugin::NextRelease" : "0",
            "Dist::Zilla::Plugin::PodCoverageTests" : "0",
            "Dist::Zilla::Plugin::PodSyntaxTests" : "0",
            "Dist::Zilla::Plugin::PodWeaver" : "0",
            "Dist::Zilla::Plugin::Prereqs" : "0",
            "Dist::Zilla::Plugin::Prereqs::AuthorDeps" : "0",
            "Dist::Zilla::Plugin::Readme::Brief" : "0",
            "Dist::Zilla::Plugin::ReadmeAnyFromPod" : "0",
            "Dist::Zilla::Plugin::Regenerate" : "0",
            "Dist::Zilla::Plugin::RewriteVersion" : "0",
            "Dist::Zilla::Plugin::RunExtraTests" : "0",
            "Dist::Zilla::Plugin::Test::CPAN::Changes" : "0",
            "Dist::Zilla::Plugin::Test::CPAN::Meta::JSON" : "0",
            "Dist::Zilla::Plugin::Test::Compile" : "0",
            "Dist::Zilla::Plugin::Test::DistManifest" : "0",
            "Dist::Zilla::Plugin::Test::Fixme" : "0",
            "Dist::Zilla::Plugin::Test::NoBreakpoints" : "0",
            "Dist::Zilla::Plugin::Test::NoTabs" : "0",
            "Dist::Zilla::Plugin::Test::Perl::Critic" : "0",
            "Dist::Zilla::Plugin::Test::PodSpelling" : "0",
            "Dist::Zilla::Plugin::Test::ReportPrereqs" : "0",
            "Dist::Zilla::Plugin::Test::TrailingSpace" : "0",
            "Dist::Zilla::Plugin::Test::UnusedVars" : "0",
            "Dist::Zilla::Plugin::Test::Version" : "0",
            "Dist::Zilla::PluginBundle::Basic" : "0",
            "Dist::Zilla::PluginBundle::Filter" : "0",
            "Pod::Coverage::TrustPod" : "0",
            "Pod::Weaver::Plugin::StopWords" : "0",
            "Pod::Weaver::Section::Contributors" : "0",
            "Pod::Weaver::Section::GenerateSection" : "0",
            "Pod::Weaver::Section::SeeAlso" : "0",
            "Pod::Wordlist" : "0",
            "Software::License::GPL_3" : "0",
            "Test::CPAN::Changes" : "0.19",
            "Test::CPAN::Meta::JSON" : "0.16",
            "Test::CleanNamespaces" : "0",
            "Test::DistManifest" : "0",
            "Test::Fixme" : "0",
            "Test::More" : "0.96",
            "Test::NoBreakpoints" : "0.15",
            "Test::NoTabs" : "0",
            "Test::Perl::Critic" : "0",
            "Test::Pod" : "1.41",
            "Test::Pod::Coverage" : "1.08",
            "Test::Spelling" : "0.12",
            "Test::TrailingSpace" : "0.0203",
            "Test::Vars" : "0.015",
            "Test::Version" : "1"
         }
      },
      "runtime" : {
         "requires" : {
            "Carp" : "0",
            "Data::GUID" : "0",
            "Moo" : "0",
            "Moo::Role" : "0",
            "MooX::ProtectedAttributes" : "0",
            "PDL::Core" : "0",
            "PDLx::DetachedObject" : "0",
            "Package::Stash" : "0",
            "Params::Check" : "0",
            "Ref::Util" : "0",
            "Safe::Isa" : "0",
            "Scalar::Util" : "0",
            "Try::Tiny" : "0",
            "namespace::clean" : "0.16",
            "overload" : "0",
            "perl" : "v5.10.0",
            "strict" : "0",
            "warnings" : "0"
         }
      },
      "test" : {
         "recommends" : {
            "CPAN::Meta" : "2.120900"
         },
         "requires" : {
            "ExtUtils::MakeMaker" : "0",
            "File::Spec" : "0",
            "IO::Handle" : "0",
            "IPC::Open3" : "0",
            "PDL::Lite" : "0",
            "Safe::Isa" : "0",
            "Test2::Tools::PDL" : "0",
            "Test2::V0" : "0",
            "Test::Lib" : "0",
            "Test::More" : "0"
         }
      }
   },
   "provides" : {
      "PDLx::Mask" : {
         "file" : "lib/PDLx/Mask.pm",
         "version" : "0.07"
      },
      "PDLx::MaskedData" : {
         "file" : "lib/PDLx/MaskedData.pm",
         "version" : "0.07"
      },
      "PDLx::Role::RestrictedPDL" : {
         "file" : "lib/PDLx/Role/RestrictedPDL.pm",
         "version" : "0.07"
      }
   },
   "release_status" : "stable",
   "resources" : {
      "bugtracker" : {
         "mailto" : "bug-pdlx-mask@rt.cpan.org",
         "web" : "https://rt.cpan.org/Public/Dist/Display.html?Name=PDLx-Mask"
      },
      "repository" : {
         "type" : "git",
         "url" : "https://gitlab.com/djerius/pdlx-mask.git",
         "web" : "https://gitlab.com/djerius/pdlx-mask"
      }
   },
   "version" : "0.07",
   "x_generated_by_perl" : "v5.36.0",
   "x_serialization_backend" : "Cpanel::JSON::XS version 4.32",
   "x_spdx_expression" : "GPL-3.0-only"
}

